{
  "posts": [
    {
      "id": 1,
      "title": "Titolo Riccardo",
      "author": "Riccardo"
    },
    {
      "id": 2,
      "title": "Titolo Paolo",
      "author": "Paolo"
    },
    {
      "id": 4,
      "title": "Titolo Marco",
      "author": "Marco"
    },
    {
      "id": 5,
      "title": "Titolo Federico",
      "author": "Federico"
    },
    {
      "id": 7,
      "title": "Titolo Luca",
      "author": "Luca"
    },
    {
      "id": 8,
      "title": "Titolo Gianluca",
      "author": "Gianluca"
    },
    {
      "id": 9,
      "title": "Titolo Giovanni",
      "author": "Giovanni"
    },
    {
      "id": 10,
      "author": "Claudio",
      "title": "Titolo Claudio"
    },
    {
      "id": 12,
      "title": "Titolo Alessandro",
      "author": "Alessandro"
    }
  ],
  "comments": [],
  "profile": {
    "name": "typicode"
  }
}